id;key;cid;is_directory
1;calculate hacking Toys;Intelligent Shoes Arizona;false
2;engine;Consultant program;true
3;digital tertiary connecting;Flats Licensed;true
4;withdrawal Ways;Connecticut;false
5;Brand overriding functionalities;Fantastic;false
6;Mall Buckinghamshire Mission;Sleek;false
7;Gardens;Plastic;true
8;Paradigm Central;Music Global Fresh;true
9;application azure;approach Home Supervisor;false
10;indexing Cotton Steel;policy;false
